Get accessibility data for particular year and table number — get_jts_data • acton
…
    The function uses a data frame of existing tables, created by the script 'accessibility_tables.R' in the data-raw folder.

The tables starting JTS01 to JTS03 provide national overview data.
The tables JTS0401 to JTS0409 provide data at the Local Authority level.
The tables JTS0501 to JTS0509 provide the same data at the LSOA level.
The tables beginning JTS09 provide data on accessibility to transport hubs.
And the tables beginning JTS10 contain add other variables.

Data is provided every year from 2014 to 2019 in many cases

    Examples

jts_tables
#> # A tibble: 223 x 5
#>    table_code csv_file_name  table_title         table_url        csv_url       
#>    <chr>      <chr>          <chr>               <chr>            <chr>         
#>  1 jts0101    jts0101-2014.… Average minimum tr… https://assets.… https://githu…
#>  2 jts0101    jts0101-2015.… Average minimum tr… https://assets.… https://githu…
#>  3 jts0101    jts0101-2016.… Average minimum tr… https://assets.… https://githu…
#>  4 jts0101    jts0101-2017.… Average minimum tr… https://assets.… https://githu…
#>  5 jts0101    jts0101-JTS01… Average minimum tr… https://assets.… https://githu…
#>  6 jts0102    jts0102-2014.… Average minimum tr… https://assets.… https://githu…
#>  7 jts0102    jts0102-2015.… Average minimum tr… https://assets.… https://githu…
#>  8 jts0102    jts0102-2016.… Average minimum tr… https://assets.… https://githu…
#>  9 jts0102    jts0102-2017.… Average minimum tr… https://assets.… https://githu…
#> 10 jts0103    jts0103-2014.… Average minimum tr… https://assets.… https://githu…
#> # … with 213 more rows
…
#>   `Places with 100-499 jobs` = col_double(),
#>   `Places with 500-4999 jobs` = col_double(),
#>   `Places with 5000 or more jobs` = col_double(),
#>   `Primary school` = col_double(),
#>   `Secondary school` = col_double(),
#>   `Further Education` = col_double(),
#>   GP = col_double(),
#>   Hospital = col_double(),
#>   `Food store` = col_double(),
#>   `Town Centres` = col_double(),
#>   `Average of 8 services2` = col_character(),
#>   X15 = col_logical(),
#>   X16 = col_logical()
#> )
#> # A tibble: 47 x 14
#>    Year  Mode  `Area type 1` `Places with Jo… `Places with Jo… `Places with Jo…
#>    <chr> <chr> <chr>                    <dbl>            <dbl>            <dbl>
#>  1 2017  Publ… Urban major …              6.6              9.2             23.6
#>  2 <NA>  <NA>  Urban minor …              7.5             10.9             26.1
#>  3 <NA>  <NA>  Urban city a…              8.3             11               30.1
#>  4 <NA>  <NA>  Urban city a…              9.8              9.7             76.4
#>  5 <NA>  <NA>  Rural town a…             10.7             13.9             45.3
#>  6 <NA>  <NA>  Rural town a…             14.3             11.6             81.9
#>  7 <NA>  <NA>  Rural village             22.3             23.6             59.9
#>  8 <NA>  <NA>  Rural villag…             32.8             34.3             97.5
#>  9 <NA>  <NA>  Rural hamlet…             29.9             31               67.6
#> 10 <NA>  <NA>  Rural hamlet…             52.2             56              105. 
#> # … with 37 more rows, and 8 more variables: `Primary school` <dbl>, `Secondary
#> #   school` <dbl>, `Further Education` <dbl>, GP <dbl>, Hospital <dbl>, `Food
#> #   store` <dbl>, `Town Centres` <dbl>, `Average of 8 services2` <chr>
…
